<svg width="40" height="40" viewBox="0 0 40 40" fill="none" xmlns="http://www.w3.org/2000/svg">
<g filter="url(#filter0_f_11_27)">
<rect x="4" y="4" width="32" height="32" fill="url(#paint0_linear_11_27)"/>
</g>
<rect x="4" y="4" width="32" height="32" fill="url(#paint1_linear_11_27)"/>
<path d="M25.5819 15.6406L19.7332 9.8667L13.8846 15.6406C12.2726 17.2348 11.4666 19.3604 11.4666 21.4042C11.4666 23.4481 12.2726 25.6043 13.8846 27.1985C15.4966 28.7927 17.6149 29.6 19.7332 29.6C21.8516 29.6 23.9699 28.7927 25.5819 27.1985C27.1939 25.6043 27.9999 23.4481 27.9999 21.4042C27.9999 19.3604 27.1939 17.2348 25.5819 15.6406ZM13.5332 21.7721C13.5436 19.7283 14.1739 18.4304 15.3519 17.2756L19.7332 12.8507L24.1146 17.3267C25.2926 18.4713 25.9229 19.7283 25.9332 21.7721H13.5332Z" fill="url(#paint2_linear_11_27)"/>
<defs>
<filter id="filter0_f_11_27" x="0" y="0" width="40" height="40" filterUnits="userSpaceOnUse" color-interpolation-filters="sRGB">
<feFlood flood-opacity="0" result="BackgroundImageFix"/>
<feBlend mode="normal" in="SourceGraphic" in2="BackgroundImageFix" result="shape"/>
<feGaussianBlur stdDeviation="2" result="effect1_foregroundBlur_11_27"/>
</filter>
<linearGradient id="paint0_linear_11_27" x1="4" y1="20" x2="36" y2="20" gradientUnits="userSpaceOnUse">
<stop stop-color="#614385"/>
<stop offset="1" stop-color="#516395"/>
</linearGradient>
<linearGradient id="paint1_linear_11_27" x1="4" y1="20" x2="36" y2="20" gradientUnits="userSpaceOnUse">
<stop stop-color="#614385"/>
<stop offset="1" stop-color="#516395"/>
</linearGradient>
<linearGradient id="paint2_linear_11_27" x1="11.4666" y1="19.7334" x2="27.9999" y2="19.7334" gradientUnits="userSpaceOnUse">
<stop stop-color="#00F5A0"/>
<stop offset="1" stop-color="#00D9F5"/>
</linearGradient>
</defs>
</svg>
